\relax 
\providecommand\hyper@newdestlabel[2]{}
\providecommand*\new@tpo@label[2]{}
\providecommand\HyperFirstAtBeginDocument{\AtBeginDocument}
\HyperFirstAtBeginDocument{\ifx\hyper@anchor\@undefined
\global\let\oldcontentsline\contentsline
\gdef\contentsline#1#2#3#4{\oldcontentsline{#1}{#2}{#3}}
\global\let\oldnewlabel\newlabel
\gdef\newlabel#1#2{\newlabelxx{#1}#2}
\gdef\newlabelxx#1#2#3#4#5#6{\oldnewlabel{#1}{{#2}{#3}}}
\AtEndDocument{\ifx\hyper@anchor\@undefined
\let\contentsline\oldcontentsline
\let\newlabel\oldnewlabel
\fi}
\fi}
\global\let\hyper@last\relax 
\gdef\HyperFirstAtBeginDocument#1{#1}
\providecommand*\HyPL@Entry[1]{}
\HyPL@Entry{0<</S/r>>}
\HyPL@Entry{1<</S/D>>}
\@writefile{toc}{\contentsline {chapter}{\numberline {1}Pregunta}{1}{chapter.1}\protected@file@percent }
\@writefile{lof}{\addvspace {10\p@ }}
\@writefile{lot}{\addvspace {10\p@ }}
\@writefile{lop}{\addvspace {10\p@ }}
\newlabel{pregunta}{{1}{1}{Pregunta}{chapter.1}{}}
\@writefile{toc}{\contentsline {section}{\numberline {1.1}Estudio de casos y controles de Mesotelioma Maligno Pleural}{1}{section.1.1}\protected@file@percent }
\newlabel{estudio-de-casos-y-controles-de-mesotelioma-maligno-pleural}{{1.1}{1}{Estudio de casos y controles de Mesotelioma Maligno Pleural}{section.1.1}{}}
\@writefile{toc}{\contentsline {subsection}{\numberline {1.1.1}Resumen}{1}{subsection.1.1.1}\protected@file@percent }
\newlabel{resumen}{{1.1.1}{1}{Resumen}{subsection.1.1.1}{}}
\@writefile{toc}{\contentsline {subsection}{\numberline {1.1.2}Características del tipo de estudio}{1}{subsection.1.1.2}\protected@file@percent }
\newlabel{caracteruxedsticas-del-tipo-de-estudio}{{1.1.2}{1}{Características del tipo de estudio}{subsection.1.1.2}{}}
\@writefile{toc}{\contentsline {subsection}{\numberline {1.1.3}Establecer si el estudio tiene Validez Interna y Externa}{2}{subsection.1.1.3}\protected@file@percent }
\newlabel{establecer-si-el-estudio-tiene-validez-interna-y-externa}{{1.1.3}{2}{Establecer si el estudio tiene Validez Interna y Externa}{subsection.1.1.3}{}}
\@writefile{toc}{\contentsline {section}{\numberline {1.2}Enfermedades crónico degenerativas como factor de riesgo de letalidad por COVID-19}{3}{section.1.2}\protected@file@percent }
\newlabel{enfermedades-cruxf3nico-degenerativas-como-factor-de-riesgo-de-letalidad-por-covid-19}{{1.2}{3}{Enfermedades crónico degenerativas como factor de riesgo de letalidad por COVID-19}{section.1.2}{}}
\@writefile{toc}{\contentsline {subsection}{\numberline {1.2.1}Resumen}{3}{subsection.1.2.1}\protected@file@percent }
\newlabel{resumen-1}{{1.2.1}{3}{Resumen}{subsection.1.2.1}{}}
\@writefile{toc}{\contentsline {subsection}{\numberline {1.2.2}Características del estudio}{4}{subsection.1.2.2}\protected@file@percent }
\newlabel{caracteruxedsticas-del-estudio}{{1.2.2}{4}{Características del estudio}{subsection.1.2.2}{}}
\@writefile{toc}{\contentsline {subsection}{\numberline {1.2.3}Validez del estudio}{4}{subsection.1.2.3}\protected@file@percent }
\newlabel{validez-del-estudio}{{1.2.3}{4}{Validez del estudio}{subsection.1.2.3}{}}
\@writefile{toc}{\contentsline {subsection}{\numberline {1.2.4}Observaciones generales}{4}{subsection.1.2.4}\protected@file@percent }
\newlabel{observaciones-generales}{{1.2.4}{4}{Observaciones generales}{subsection.1.2.4}{}}
\@writefile{toc}{\contentsline {section}{\numberline {1.3}Sistema de gestión de riesgos para reducir el contagio de COVID-19 en el personal de salud}{4}{section.1.3}\protected@file@percent }
\newlabel{sistema-de-gestiuxf3n-de-riesgos-para-reducir-el-contagio-de-covid-19-en-el-personal-de-salud}{{1.3}{4}{Sistema de gestión de riesgos para reducir el contagio de COVID-19 en el personal de salud}{section.1.3}{}}
\@writefile{toc}{\contentsline {subsection}{\numberline {1.3.1}Características del estudio}{4}{subsection.1.3.1}\protected@file@percent }
\newlabel{caracteruxedsticas-del-estudio-1}{{1.3.1}{4}{Características del estudio}{subsection.1.3.1}{}}
\@writefile{toc}{\contentsline {subsection}{\numberline {1.3.2}Definición y selección de casos}{5}{subsection.1.3.2}\protected@file@percent }
\newlabel{definiciuxf3n-y-selecciuxf3n-de-casos}{{1.3.2}{5}{Definición y selección de casos}{subsection.1.3.2}{}}
\@writefile{toc}{\contentsline {subsection}{\numberline {1.3.3}Métodos:}{5}{subsection.1.3.3}\protected@file@percent }
\newlabel{muxe9todos}{{1.3.3}{5}{Métodos:}{subsection.1.3.3}{}}
\@writefile{toc}{\contentsline {subsection}{\numberline {1.3.4}Métodos estadísticos}{6}{subsection.1.3.4}\protected@file@percent }
\newlabel{muxe9todos-estaduxedsticos}{{1.3.4}{6}{Métodos estadísticos}{subsection.1.3.4}{}}
\@writefile{toc}{\contentsline {subsection}{\numberline {1.3.5}Validez del estudio}{6}{subsection.1.3.5}\protected@file@percent }
\newlabel{validez-del-estudio-1}{{1.3.5}{6}{Validez del estudio}{subsection.1.3.5}{}}
\@writefile{toc}{\contentsline {chapter}{\numberline {2}Pregunta}{7}{chapter.2}\protected@file@percent }
\@writefile{lof}{\addvspace {10\p@ }}
\@writefile{lot}{\addvspace {10\p@ }}
\@writefile{lop}{\addvspace {10\p@ }}
\newlabel{pregunta-1}{{2}{7}{Pregunta}{chapter.2}{}}
\gdef \LT@i {\LT@entry 
    {3}{71.97374pt}\LT@entry 
    {1}{39.4845pt}\LT@entry 
    {1}{57.40964pt}\LT@entry 
    {3}{60.19113pt}}
\@writefile{toc}{\contentsline {chapter}{\numberline {3}Pregunta}{8}{chapter.3}\protected@file@percent }
\@writefile{lof}{\addvspace {10\p@ }}
\@writefile{lot}{\addvspace {10\p@ }}
\@writefile{lop}{\addvspace {10\p@ }}
\newlabel{pregunta-2}{{3}{8}{Pregunta}{chapter.3}{}}
\@writefile{lot}{\contentsline {table}{\numberline {3.1}{\ignorespaces Tabla cruzada (2x2).\relax }}{8}{table.3.1}\protected@file@percent }
\gdef \LT@ii {\LT@entry 
    {1}{66.82724pt}\LT@entry 
    {1}{44.89378pt}\LT@entry 
    {1}{55.31879pt}}
\@writefile{toc}{\contentsline {chapter}{\numberline {4}Pregunta}{10}{chapter.4}\protected@file@percent }
\@writefile{lof}{\addvspace {10\p@ }}
\@writefile{lot}{\addvspace {10\p@ }}
\@writefile{lop}{\addvspace {10\p@ }}
\newlabel{pregunta-3}{{4}{10}{Pregunta}{chapter.4}{}}
\@writefile{lot}{\contentsline {table}{\numberline {4.1}{\ignorespaces Tabla de clasificación cruzada 2 x 2 (Hulley y Cummings, 1993).\relax }}{10}{table.4.1}\protected@file@percent }
\@writefile{toc}{\contentsline {section}{\numberline {4.1}Estimación puntual Riesgo Atribuible e intervalo de confianza: método directo}{10}{section.4.1}\protected@file@percent }
\newlabel{estimaciuxf3n-puntual-riesgo-atribuible-e-intervalo-de-confianza-muxe9todo-directo}{{4.1}{10}{Estimación puntual Riesgo Atribuible e intervalo de confianza: método directo}{section.4.1}{}}
\@writefile{toc}{\contentsline {section}{\numberline {4.2}Estimación Riesgo Atribuible e intervalo de confianza: bootstrap}{12}{section.4.2}\protected@file@percent }
\newlabel{estimaciuxf3n-riesgo-atribuible-e-intervalo-de-confianza-bootstrap}{{4.2}{12}{Estimación Riesgo Atribuible e intervalo de confianza: bootstrap}{section.4.2}{}}
\gdef \LT@iii {\LT@entry 
    {1}{151.94653pt}\LT@entry 
    {1}{137.11203pt}\LT@entry 
    {1}{60.66245pt}\LT@entry 
    {1}{68.53851pt}}
\gdef \LT@iv {\LT@entry 
    {2}{71.97374pt}\LT@entry 
    {1}{39.4845pt}\LT@entry 
    {1}{51.40964pt}}
\@writefile{toc}{\contentsline {chapter}{\numberline {5}Pregunta}{16}{chapter.5}\protected@file@percent }
\@writefile{lof}{\addvspace {10\p@ }}
\@writefile{lot}{\addvspace {10\p@ }}
\@writefile{lop}{\addvspace {10\p@ }}
\newlabel{pregunta-4}{{5}{16}{Pregunta}{chapter.5}{}}
\@writefile{lot}{\contentsline {table}{\numberline {5.1}{\ignorespaces Tabla de cálculos renales\relax }}{16}{table.5.1}\protected@file@percent }
